[ {
  "data" : {
    "Product defects" : 3,
    "Test defects" : 67
  }
}, {
  "data" : {
    "Product defects" : 3,
    "Test defects" : 67
  }
}, {
  "data" : {
    "Product defects" : 3,
    "Test defects" : 67
  }
}, {
  "data" : {
    "Product defects" : 3,
    "Test defects" : 67
  }
}, {
  "data" : { }
} ]